<svg width="71" height="40" viewBox="0 0 71 40" fill="none" xmlns="http://www.w3.org/2000/svg">
<path fill-rule="evenodd" clip-rule="evenodd" d="M3.62809 0C2.15533 0 0.961426 1.19391 0.961426 2.66667C0.961426 4.13943 2.15534 5.33333 3.62809 5.33333H27.6281L34.2948 5.33333C35.7675 5.33333 36.9614 6.52724 36.9614 8C36.9614 9.472 35.7688 10.6654 34.297 10.6667L34.2948 10.6667H27.6281L11.6281 10.6667C10.1553 10.6667 8.96143 11.8606 8.96143 13.3333C8.96143 14.8061 10.1553 16 11.6281 16H27.6281H28.9614C30.4342 16 31.6281 17.1939 31.6281 18.6667C31.6281 20.1384 30.4359 21.3316 28.9646 21.3333C28.9636 21.3333 28.9625 21.3333 28.9614 21.3333H27.6281L23.6281 21.3333C22.1553 21.3333 20.9614 22.5272 20.9614 24C20.9614 25.4728 22.1553 26.6667 23.6281 26.6667H29.6281H31.4328C34.1784 34.4346 41.5866 40 50.2948 40C61.3405 40 70.2948 31.0457 70.2948 20C70.2948 8.9543 61.3405 0 50.2948 0C49.9669 0 49.6409 0.00788933 49.3169 0.0234876C49.2006 0.00799639 49.082 0 48.9614 0H3.62809ZM52.9615 20.2152V6.66667H47.6282V21.3333C47.6282 21.4249 47.6328 21.5153 47.6418 21.6045C47.5855 22.5789 48.0683 23.5485 48.9712 24.0698L57.0933 28.7591L59.76 24.1403L52.9615 20.2152Z" fill="#FF8600"/>
</svg>
